[gd_scene load_steps=3 format=2]

[ext_resource path="res://scenes/piece.tscn" type="PackedScene" id=1]
[ext_resource path="res://art/2_piece.png" type="Texture" id=2]

[node name="2_piece" instance=ExtResource( 1 )]
number = 2

[node name="Sprite" parent="." index="0"]
texture = ExtResource( 2 )
