[gd_scene load_steps=3 format=2]

[ext_resource path="res://art/background_piece.png" type="Texture" id=1]
[ext_resource path="res://scenes/piece.tscn" type="PackedScene" id=2]

[node name="Node2D" instance=ExtResource( 2 )]
number = "0"
background = true

[node name="Sprite" parent="." index="0"]
texture = ExtResource( 1 )
